<?xml version="1.0" encoding="UTF-8"?>
<glyph name="dblgravecmb" format="2">
	<unicode hex="030F"/>
	<outline>
		<contour>
			<point x="44" y="570" type="line"/>
			<point x="70" y="570" type="line"/>
			<point x="-6" y="720" type="line"/>
			<point x="-38" y="720" type="line"/>
			<point x="-40" y="716" type="line"/>
		</contour>
		<contour>
			<point x="194" y="570" type="line"/>
			<point x="220" y="570" type="line"/>
			<point x="144" y="720" type="line"/>
			<point x="112" y="720" type="line"/>
			<point x="110" y="716" type="line"/>
		</contour>
	</outline>
	<anchor name="_aboveLC" x="100" y="502"/>
	<lib>
		<dict>
			<key>public.markColor</key>
			<string>0.9958,0.8001,0.4,1</string>
		</dict>
	</lib>
</glyph>
